C:\Users\Admin\Desktop\JAVA\Kubernetes\kubernetes-crash-course\08-currency-conversion-microservice-stackdriver\src\main\java\com\in28minutes\microservices\currencyconversionservice\resource\CurrencyConversionController.java
C:\Users\Admin\Desktop\JAVA\Kubernetes\kubernetes-crash-course\08-currency-conversion-microservice-stackdriver\src\main\java\com\in28minutes\microservices\currencyconversionservice\util\environment\EnvironmentConfigurationLogger.java
C:\Users\Admin\Desktop\JAVA\Kubernetes\kubernetes-crash-course\08-currency-conversion-microservice-stackdriver\src\main\java\com\in28minutes\microservices\currencyconversionservice\resource\CurrencyExchangeServiceProxy.java
C:\Users\Admin\Desktop\JAVA\Kubernetes\kubernetes-crash-course\08-currency-conversion-microservice-stackdriver\src\main\java\com\in28minutes\microservices\currencyconversionservice\resource\CurrencyConversionBean.java
C:\Users\Admin\Desktop\JAVA\Kubernetes\kubernetes-crash-course\08-currency-conversion-microservice-stackdriver\src\main\java\com\in28minutes\microservices\currencyconversionservice\util\environment\InstanceInformationService.java
C:\Users\Admin\Desktop\JAVA\Kubernetes\kubernetes-crash-course\08-currency-conversion-microservice-stackdriver\src\main\java\com\in28minutes\microservices\currencyconversionservice\CurrencyConversionServiceApplication.java
C:\Users\Admin\Desktop\JAVA\Kubernetes\kubernetes-crash-course\08-currency-conversion-microservice-stackdriver\src\main\java\com\in28minutes\microservices\currencyconversionservice\security\SecurityConfiguration.java
